598489 61479 470
44234 530709 470
911422 106548 525
133382 847026 525
345607 614139 470
243283 804899 509
318780 466473 449
564607 43655 470
458532 943966 525
220750 990114 525
108221 334408 443
69547 962405 525
30031 668191 509
182929 787354 509
18179 51705 324
129419 899877 525
463044 46750 449
59958 244305 443
729375 468796 509
997072 92420 525
175492 721359 509
116709 428448 449
516207 678982 509
755841 633289 504
664951 19357 509
707548 329370 509
512117 791136 509
675996 894212 525
773618 305728 509
599007 753274 509
164576 144522 383
647490 931424 525
630519 865731 525
535424 544477 408
618311 609034 447
60402 963640 525
644414 663861 429
433135 168539 449
972271 805491 525
153101 913512 525
350190 712275 509
106091 915516 525
427405 65943 449
577032 624759 447
257308 2289 443
741119 529487 509
346639 7236 443
819957 148210 509
35648 900224 525
55674 13025 340
956382 925806 507
291950 218937 443
422389 333564 449
259882 292131 407
303049 18314 443
441934 886862 525
145704 138787 375
543032 319103 470
236434 133125 443
191363 30181 383
583915 97643 470
720974 1745 509
93265 41727 351
658173 650331 429
76107 576889 470
992496 680349 525
721314 111757 509
792077 588631 509
708239 30026 509
443479 699234 509
242181 627659 509
537451 685361 509
910376 186399 525
591878 125675 470
350207 800388 509
752447 237083 509
35684 66955 340
901623 648351 525
187869 199536 360
734645 637810 504
29832 146872 375
857114 263614 525
386816 222260 443
803722 11929 509
817779 136311 509
887956 21210 525
61229 239349 443
521612 520875 364
689854 99468 509
714710 836335 468
566416 717084 509
620580 893935 525
963259 957580 414
632419 86977 509
735301 420638 509
728147 696253 504
907519 617632 525
55410 406939 443
654272 662502 429
39148 214644 383
486601 15287 449
272603 538123 470
636574 61452 509
754054 992123 525
243115 364947 441
293192 665190 509
891591 293472 525
870413 682236 525
712002 981257 525
667665 630656 442
206643 364379 443
211105 648945 509
151771 237139 443
782534 452299 509
518726 377825 470
804846 861855 525
917933 886358 476
945657 172000 525
650064 411330 509
420762 113183 449
766991 761761 375
526180 944952 525
643359 837233 504
733982 732803 349
265134 625681 470
514046 287612 470
319898 870910 525
640989 652910 416
527820 548141 452
162098 640799 509
894296 460143 525
389679 499334 449
918263 573728 525
320485 718515 509
817831 534455 509
628435 298931 509
374859 518834 470
296697 245734 407
790586 20418 509
276586 607821 470
898421 955745 507
935040 231523 525
800776 137608 509
468335 216496 449
536756 271756 470
403549 839966 525
537126 418482 470
893479 549902 525
660051 780652 504
825263 866474 525
227045 108621 386
623190 671158 509
430527 726652 509
491855 20252 449
738935 975367 525
663067 282833 509
496335 484008 426
591821 242524 470
310231 393980 441
798069 116267 509
294811 623080 470
390340 98868 443
376845 747110 509
464260 188380 449
221848 781856 509
799944 635134 504
524207 678518 509
615867 671161 509
378080 883487 525
831415 954045 525
80676 727851 509
121254 118498 318
817148 101794 509
868442 645295 525
309141 176926 443
950951 216034 525
63361 900011 525
968925 317984 525
282072 84381 443
471577 549144 470
300431 795515 509
115704 279683 443
110054 665847 509
706310 933067 525
687707 112224 509
954192 661990 525
807477 941551 525
328996 996480 525
577742 18139 470
274624 332348 389
525471 646827 509
453801 612082 470
584334 18341 470
519871 729761 509
394294 722718 509
644032 795218 504
489168 728576 509
781553 795537 437
191292 395347 443
941587 656920 525
805403 915725 525
803144 872743 525
55643 169262 383
194067 264690 443
507685 806498 509
736225 297846 509
908333 756739 525
629214 225930 509
347399 611274 470
817329 391791 509
116583 622957 470
776813 525243 509
935788 174002 525
889834 68379 525
564423 920463 525
183053 199398 360
976347 674116 525
713426 501618 509
472473 241562 449
186089 42121 383
186092 808546 509
278332 429611 449
63968 332670 443
410985 36105 449
544372 734790 509
280345 461371 449
223858 685356 509
369319 818266 509
338049 634077 509
983654 449232 525
116050 498965 449
163289 622787 470
352914 913939 525
288814 155800 443
923658 852381 476
973061 160884 525
213781 300801 443
471054 392237 449
209494 376601 443
269078 271808 407
130257 451367 449
823169 773030 468
254429 229632 443
512995 60233 470
637498 809422 504
521450 785400 509
704051 378903 509
719199 193285 509
594882 778879 509
749224 80244 509
